…
``` r
print(as_tibble(mtcars))
```

    ## # A tibble: 32 x 11
    ##      mpg   cyl  disp    hp  drat    wt  qsec    vs    am  gear  carb
    ##  * <dbl> <dbl> <dbl> <dbl> <dbl> <dbl> <dbl> <dbl> <dbl> <dbl> <dbl>
    ##  1  21.0     6 160.0   110  3.90 2.620 16.46     0     1     4     4
    ##  2  21.0     6 160.0   110  3.90 2.875 17.02     0     1     4     4
    ##  3  22.8     4 108.0    93  3.85 2.320 18.61     1     1     4     1
    ##  4  21.4     6 258.0   110  3.08 3.215 19.44     1     0     3     1
    ##  5  18.7     8 360.0   175  3.15 3.440 17.02     0     0     3     2
    ##  6  18.1     6 225.0   105  2.76 3.460 20.22     1     0     3     1
    ##  7  14.3     8 360.0   245  3.21 3.570 15.84     0     0     3     4
    ##  8  24.4     4 146.7    62  3.69 3.190 20.00     1     0     4     2
    ##  9  22.8     4 140.8    95  3.92 3.150 22.90     1     0     4     2
    ## 10  19.2     6 167.6   123  3.92 3.440 18.30     1     0     4     4
    ## # ... with 22 more rows

2. Compare and contrast the following operations on a data.frame and equivalent tibble. What is different? Why might the default data frame behaviours cause you frustration?

    You have to be more explicit with a tibble, which in turn give more reliability. Data frames can give unexpected results because it will give a result back if you partially match a column.

3. If you have the name of a variable stored in an object, e.g. var &lt;- "mpg", how can you extract the reference variable from a tibble?

``` r
tibbleCar <- as_tibble(mtcars)
var <- "mpg"
tibbleCar[var]
```

    ## # A tibble: 32 x 1
    ##      mpg
    ##    <dbl>
    ##  1  21.0
    ##  2  21.0
    ##  3  22.8
    ##  4  21.4
    ##  5  18.7
    ##  6  18.1
    ##  7  14.3
    ##  8  24.4
    ##  9  22.8
    ## 10  19.2
    ## # ... with 22 more rows
…
